^C:\USERS\USER\SOURCE\DOWNLOADS\CONSTANTS.CPP|C:\USERS\USER\SOURCE\REPOS\ISSUE-TRACKING-DZ\ISSUE-TRACKING-DZ\ISSUE-TRACKING-DZ\ADDCONSIGNMENTNOTE.CPP|C:\USERS\USER\SOURCE\REPOS\ISSUE-TRACKING-DZ\ISSUE-TRACKING-DZ\ISSUE-TRACKING-DZ\CHANGEORDERSTATUS.CPP|C:\USERS\USER\SOURCE\REPOS\ISSUE-TRACKING-DZ\ISSUE-TRACKING-DZ\ISSUE-TRACKING-DZ\CHOOSECONSIGNMENTNOTE.CPP|C:\USERS\USER\SOURCE\REPOS\ISSUE-TRACKING-DZ\ISSUE-TRACKING-DZ\ISSUE-TRACKING-DZ\CHOOSEORDER.CPP|C:\USERS\USER\SOURCE\REPOS\ISSUE-TRACKING-DZ\ISSUE-TRACKING-DZ\ISSUE-TRACKING-DZ\CLIENTSTORAGE.CPP|C:\USERS\USER\SOURCE\REPOS\ISSUE-TRACKING-DZ\ISSUE-TRACKING-DZ\ISSUE-TRACKING-DZ\CONSIGNMENTNOTESTORAGE.CPP|C:\USERS\USER\SOURCE\REPOS\ISSUE-TRACKING-DZ\ISSUE-TRACKING-DZ\ISSUE-TRACKING-DZ\DRIVERSTORAGE.CPP|C:\USERS\USER\SOURCE\REPOS\ISSUE-TRACKING-DZ\ISSUE-TRACKING-DZ\ISSUE-TRACKING-DZ\EDITCLIENT.CPP|C:\USERS\USER\SOURCE\REPOS\ISSUE-TRACKING-DZ\ISSUE-TRACKING-DZ\ISSUE-TRACKING-DZ\EDITDRIVER.CPP|C:\USERS\USER\SOURCE\REPOS\ISSUE-TRACKING-DZ\ISSUE-TRACKING-DZ\ISSUE-TRACKING-DZ\FILTERCONSIGNMENTNOTELIST.CPP|C:\USERS\USER\SOURCE\REPOS\ISSUE-TRACKING-DZ\ISSUE-TRACKING-DZ\ISSUE-TRACKING-DZ\LOGIN.CPP|C:\USERS\USER\SOURCE\REPOS\ISSUE-TRACKING-DZ\ISSUE-TRACKING-DZ\ISSUE-TRACKING-DZ\MAIN.CPP|C:\USERS\USER\SOURCE\REPOS\ISSUE-TRACKING-DZ\ISSUE-TRACKING-DZ\ISSUE-TRACKING-DZ\MENU.CPP|C:\USERS\USER\SOURCE\REPOS\ISSUE-TRACKING-DZ\ISSUE-TRACKING-DZ\ISSUE-TRACKING-DZ\SHIPMENTSTORAGE.CPP|C:\USERS\USER\SOURCE\REPOS\ISSUE-TRACKING-DZ\ISSUE-TRACKING-DZ\ISSUE-TRACKING-DZ\SHOWCLIENTLIST.CPP|C:\USERS\USER\SOURCE\REPOS\ISSUE-TRACKING-DZ\ISSUE-TRACKING-DZ\ISSUE-TRACKING-DZ\SHOWCONSIGNMENTNOTELIST.CPP|C:\USERS\USER\SOURCE\REPOS\ISSUE-TRACKING-DZ\ISSUE-TRACKING-DZ\ISSUE-TRACKING-DZ\SHOWDRIVERLIST.CPP|C:\USERS\USER\SOURCE\REPOS\ISSUE-TRACKING-DZ\ISSUE-TRACKING-DZ\ISSUE-TRACKING-DZ\SHOWORDERSTORY.CPP
C:\USERS\USER\SOURCE\REPOS\ISSUE-TRACKING-DZ\ISSUE-TRACKING-DZ\ISSUE-TRACKING-DZ\X64\DEBUG\VC142.PDB
C:\USERS\USER\SOURCE\REPOS\ISSUE-TRACKING-DZ\ISSUE-TRACKING-DZ\ISSUE-TRACKING-DZ\X64\DEBUG\VC142.IDB
C:\USERS\USER\SOURCE\REPOS\ISSUE-TRACKING-DZ\ISSUE-TRACKING-DZ\ISSUE-TRACKING-DZ\X64\DEBUG\SHOWORDERSTORY.OBJ
C:\USERS\USER\SOURCE\REPOS\ISSUE-TRACKING-DZ\ISSUE-TRACKING-DZ\ISSUE-TRACKING-DZ\X64\DEBUG\SHOWDRIVERLIST.OBJ
C:\USERS\USER\SOURCE\REPOS\ISSUE-TRACKING-DZ\ISSUE-TRACKING-DZ\ISSUE-TRACKING-DZ\X64\DEBUG\SHOWCLIENTLIST.OBJ
C:\USERS\USER\SOURCE\REPOS\ISSUE-TRACKING-DZ\ISSUE-TRACKING-DZ\ISSUE-TRACKING-DZ\X64\DEBUG\MENU.OBJ
C:\USERS\USER\SOURCE\REPOS\ISSUE-TRACKING-DZ\ISSUE-TRACKING-DZ\ISSUE-TRACKING-DZ\X64\DEBUG\MAIN.OBJ
C:\USERS\USER\SOURCE\REPOS\ISSUE-TRACKING-DZ\ISSUE-TRACKING-DZ\ISSUE-TRACKING-DZ\X64\DEBUG\LOGIN.OBJ
C:\USERS\USER\SOURCE\REPOS\ISSUE-TRACKING-DZ\ISSUE-TRACKING-DZ\ISSUE-TRACKING-DZ\X64\DEBUG\EDITDRIVER.OBJ
C:\USERS\USER\SOURCE\REPOS\ISSUE-TRACKING-DZ\ISSUE-TRACKING-DZ\ISSUE-TRACKING-DZ\X64\DEBUG\EDITCLIENT.OBJ
C:\USERS\USER\SOURCE\REPOS\ISSUE-TRACKING-DZ\ISSUE-TRACKING-DZ\ISSUE-TRACKING-DZ\X64\DEBUG\DRIVERSTORAGE.OBJ
C:\USERS\USER\SOURCE\REPOS\ISSUE-TRACKING-DZ\ISSUE-TRACKING-DZ\ISSUE-TRACKING-DZ\X64\DEBUG\CLIENTSTORAGE.OBJ
C:\USERS\USER\SOURCE\REPOS\ISSUE-TRACKING-DZ\ISSUE-TRACKING-DZ\ISSUE-TRACKING-DZ\X64\DEBUG\CHOOSEORDER.OBJ
C:\USERS\USER\SOURCE\REPOS\ISSUE-TRACKING-DZ\ISSUE-TRACKING-DZ\ISSUE-TRACKING-DZ\X64\DEBUG\CHOOSECONSIGNMENTNOTE.OBJ
C:\USERS\USER\SOURCE\REPOS\ISSUE-TRACKING-DZ\ISSUE-TRACKING-DZ\ISSUE-TRACKING-DZ\X64\DEBUG\CHANGEORDERSTATUS.OBJ
^C:\USERS\USER\SOURCE\REPOS\ISSUE-TRACKING-DZ\ISSUE-TRACKING-DZ\ISSUE-TRACKING-DZ\CHANGEORDERSTATUS.CPP
C:\USERS\USER\SOURCE\REPOS\ISSUE-TRACKING-DZ\ISSUE-TRACKING-DZ\ISSUE-TRACKING-DZ\X64\DEBUG\CHANGEORDERSTATUS.OBJ
^C:\USERS\USER\SOURCE\REPOS\ISSUE-TRACKING-DZ\ISSUE-TRACKING-DZ\ISSUE-TRACKING-DZ\CHOOSECONSIGNMENTNOTE.CPP
C:\USERS\USER\SOURCE\REPOS\ISSUE-TRACKING-DZ\ISSUE-TRACKING-DZ\ISSUE-TRACKING-DZ\X64\DEBUG\CHOOSECONSIGNMENTNOTE.OBJ
^C:\USERS\USER\SOURCE\REPOS\ISSUE-TRACKING-DZ\ISSUE-TRACKING-DZ\ISSUE-TRACKING-DZ\CHOOSEORDER.CPP
C:\USERS\USER\SOURCE\REPOS\ISSUE-TRACKING-DZ\ISSUE-TRACKING-DZ\ISSUE-TRACKING-DZ\X64\DEBUG\CHOOSEORDER.OBJ
^C:\USERS\USER\SOURCE\REPOS\ISSUE-TRACKING-DZ\ISSUE-TRACKING-DZ\ISSUE-TRACKING-DZ\CLIENTSTORAGE.CPP
C:\USERS\USER\SOURCE\REPOS\ISSUE-TRACKING-DZ\ISSUE-TRACKING-DZ\ISSUE-TRACKING-DZ\X64\DEBUG\CLIENTSTORAGE.OBJ
^C:\USERS\USER\SOURCE\REPOS\ISSUE-TRACKING-DZ\ISSUE-TRACKING-DZ\ISSUE-TRACKING-DZ\EDITCLIENT.CPP
C:\USERS\USER\SOURCE\REPOS\ISSUE-TRACKING-DZ\ISSUE-TRACKING-DZ\ISSUE-TRACKING-DZ\X64\DEBUG\EDITCLIENT.OBJ
^C:\USERS\USER\SOURCE\REPOS\ISSUE-TRACKING-DZ\ISSUE-TRACKING-DZ\ISSUE-TRACKING-DZ\EDITDRIVER.CPP
C:\USERS\USER\SOURCE\REPOS\ISSUE-TRACKING-DZ\ISSUE-TRACKING-DZ\ISSUE-TRACKING-DZ\X64\DEBUG\EDITDRIVER.OBJ
^C:\USERS\USER\SOURCE\REPOS\ISSUE-TRACKING-DZ\ISSUE-TRACKING-DZ\ISSUE-TRACKING-DZ\MAIN.CPP
C:\USERS\USER\SOURCE\REPOS\ISSUE-TRACKING-DZ\ISSUE-TRACKING-DZ\ISSUE-TRACKING-DZ\X64\DEBUG\MAIN.OBJ
^C:\USERS\USER\SOURCE\REPOS\ISSUE-TRACKING-DZ\ISSUE-TRACKING-DZ\ISSUE-TRACKING-DZ\MENU.CPP
C:\USERS\USER\SOURCE\REPOS\ISSUE-TRACKING-DZ\ISSUE-TRACKING-DZ\ISSUE-TRACKING-DZ\X64\DEBUG\MENU.OBJ
